%YAML 1.1
%TAG !u! tag:unity3d.com,2011:
--- !u!114 &11400000
MonoBehaviour:
  m_ObjectHideFlags: 0
  m_CorrespondingSourceObject: {fileID: 0}
  m_PrefabInstance: {fileID: 0}
  m_PrefabAsset: {fileID: 0}
  m_GameObject: {fileID: 0}
  m_Enabled: 1
  m_EditorHideFlags: 0
  m_Script: {fileID: 11500000, guid: ce881c6d4013a425a9258161f83952c8, type: 3}
  m_Name: AnchorKeysStorage_zoo_0409
  m_EditorClassIdentifier: 
  AnchorKeys:
  - 2641cfcf-6973-419f-a6b1-ae71107fb11c
  - 11609e74-37af-4b05-8a82-9845289da986
  - 804bcce2-1eb8-4b8a-a38c-ed327001d0e5
  - 80b06cd7-561a-4d6e-8a8d-d69e10ee6bcb
  - 574192ad-cd89-45c8-90b4-1c4904713b87
  - 374eba16-dc5b-4cdb-8ad1-088ec54fa99c
  - 06ae12ad-5456-4355-b37a-0ebaecc0ae3d
  - 34629014-ba6f-4fd2-a962-f7d53b5e9211
  - e463273c-f757-48cc-b9d5-5211748c29eb
