%YAML 1.1
%TAG !u! tag:unity3d.com,2011:
--- !u!1 &444345166886180055
GameObject:
  m_ObjectHideFlags: 0
  m_CorrespondingSourceObject: {fileID: 0}
  m_PrefabInstance: {fileID: 0}
  m_PrefabAsset: {fileID: 0}
  serializedVersion: 6
  m_Component:
  - component: {fileID: 444345166886180058}
  - component: {fileID: 444345166886180052}
  m_Layer: 0
  m_Name: AnchorFinderManager
  m_TagString: Untagged
  m_Icon: {fileID: 0}
  m_NavMeshLayer: 0
  m_StaticEditorFlags: 0
  m_IsActive: 1
--- !u!4 &444345166886180058
Transform:
  m_ObjectHideFlags: 0
  m_CorrespondingSourceObject: {fileID: 0}
  m_PrefabInstance: {fileID: 0}
  m_PrefabAsset: {fileID: 0}
  m_GameObject: {fileID: 444345166886180055}
  m_LocalRotation: {x: -0, y: -0, z: -0, w: 1}
  m_LocalPosition: {x: 0, y: 2.75, z: 0}
  m_LocalScale: {x: 1, y: 1, z: 1}
  m_Children: []
  m_Father: {fileID: 0}
  m_RootOrder: 0
  m_LocalEulerAnglesHint: {x: 0, y: 0, z: 0}
--- !u!114 &444345166886180052
MonoBehaviour:
  m_ObjectHideFlags: 0
  m_CorrespondingSourceObject: {fileID: 0}
  m_PrefabInstance: {fileID: 0}
  m_PrefabAsset: {fileID: 0}
  m_GameObject: {fileID: 444345166886180055}
  m_Enabled: 1
  m_EditorHideFlags: 0
  m_Script: {fileID: 11500000, guid: 292e116f6571e43d58d68cfa890c6af1, type: 3}
  m_Name: 
  m_EditorClassIdentifier: 
  m_Config: {fileID: 11400000, guid: e8dfebd5544d47d4ea552664e24575f4, type: 2}
  m_Anchor: {fileID: 0}
  m_AnchorStorages:
  - {fileID: 11400000, guid: a1b2c8dce60404e0393dfc3cd9d2b612, type: 2}
  m_AnchorPrefab: {fileID: 6592969081326200741, guid: e42394843229d4a41aefb61bc9da8ebb,
    type: 3}
  m_LoadingCanvas: {fileID: 0}
  m_AutoStart: 1
  OnLogInvoke:
    m_PersistentCalls:
      m_Calls: []
  OnStartSession:
    m_PersistentCalls:
      m_Calls: []
  OnFirstAnchorFound:
    m_PersistentCalls:
      m_Calls: []
  OnAnchorsClear:
    m_PersistentCalls:
      m_Calls: []
  OnTrackingLost:
    m_PersistentCalls:
      m_Calls: []
  OnTrackingBack:
    m_PersistentCalls:
      m_Calls: []
