%YAML 1.1
%TAG !u! tag:unity3d.com,2011:
--- !u!114 &11400000
MonoBehaviour:
  m_ObjectHideFlags: 0
  m_CorrespondingSourceObject: {fileID: 0}
  m_PrefabInstance: {fileID: 0}
  m_PrefabAsset: {fileID: 0}
  m_GameObject: {fileID: 0}
  m_Enabled: 1
  m_EditorHideFlags: 0
  m_Script: {fileID: 11500000, guid: ce881c6d4013a425a9258161f83952c8, type: 3}
  m_Name: AnchorKeysStorage_zoo_0413
  m_EditorClassIdentifier: 
  AnchorKeys:
  - 16537815-3a1a-41c4-a180-0abef9b84927
  - 786bb9b8-1079-4022-8825-d2c9f192eb62
  - 60cb2fe3-4b93-4d09-a3cb-be8a0571bc40
  - 35033903-a401-4558-a576-7890f56e6871
  - 9f33b106-c4c2-448f-8581-b47c7aad9eb0
  - 68513bc5-82b6-4748-bf0d-ec3edd94750c
  - ed66c4e7-41f9-471a-b0b3-6f07dda056e0
  - 46899fcb-8ff2-4013-913e-ca0d8536e519
  - 7f2a91b6-defc-4763-8edb-90e552e478e1
