^D:\UNITYPROJECTS\MOONDREAM-REALITY-AKI\BUILD\MOONDREAM-REALITY-AKI\PCH.CPP
D:\UNITYPROJECTS\MOONDREAM-REALITY-AKI\BUILD\BUILD\OBJ\MOONDREAM-REALITY-AKI\ARM64\RELEASE\MOONDREAM-REALITY-AKI.PCH
D:\UNITYPROJECTS\MOONDREAM-REALITY-AKI\BUILD\BUILD\OBJ\MOONDREAM-REALITY-AKI\ARM64\RELEASE\VC142.PDB
D:\UNITYPROJECTS\MOONDREAM-REALITY-AKI\BUILD\BUILD\OBJ\MOONDREAM-REALITY-AKI\ARM64\RELEASE\PCH.OBJ
^D:\UNITYPROJECTS\MOONDREAM-REALITY-AKI\BUILD\MOONDREAM-REALITY-AKI\APP.CPP|D:\UNITYPROJECTS\MOONDREAM-REALITY-AKI\BUILD\MOONDREAM-REALITY-AKI\MAIN.CPP|D:\UNITYPROJECTS\MOONDREAM-REALITY-AKI\BUILD\MOONDREAM-REALITY-AKI\UNITYGENERATED.CPP
D:\UNITYPROJECTS\MOONDREAM-REALITY-AKI\BUILD\BUILD\OBJ\MOONDREAM-REALITY-AKI\ARM64\RELEASE\APP.OBJ
D:\UNITYPROJECTS\MOONDREAM-REALITY-AKI\BUILD\BUILD\OBJ\MOONDREAM-REALITY-AKI\ARM64\RELEASE\MAIN.OBJ
D:\UNITYPROJECTS\MOONDREAM-REALITY-AKI\BUILD\BUILD\OBJ\MOONDREAM-REALITY-AKI\ARM64\RELEASE\UNITYGENERATED.OBJ
^D:\UNITYPROJECTS\MOONDREAM-REALITY-AKI\BUILD\MOONDREAM-REALITY-AKI\MAIN.CPP
D:\UNITYPROJECTS\MOONDREAM-REALITY-AKI\BUILD\BUILD\OBJ\MOONDREAM-REALITY-AKI\ARM64\RELEASE\VC142.PDB
^D:\UNITYPROJECTS\MOONDREAM-REALITY-AKI\BUILD\MOONDREAM-REALITY-AKI\APP.CPP|D:\UNITYPROJECTS\MOONDREAM-REALITY-AKI\BUILD\MOONDREAM-REALITY-AKI\UNITYGENERATED.CPP
D:\UNITYPROJECTS\MOONDREAM-REALITY-AKI\BUILD\BUILD\OBJ\MOONDREAM-REALITY-AKI\ARM64\RELEASE\APP.OBJ
D:\UNITYPROJECTS\MOONDREAM-REALITY-AKI\BUILD\BUILD\OBJ\MOONDREAM-REALITY-AKI\ARM64\RELEASE\UNITYGENERATED.OBJ
^D:\UNITYPROJECTS\MOONDREAM-REALITY-AKI\BUILD\MOONDREAM-REALITY-AKI\APP.CPP
D:\UNITYPROJECTS\MOONDREAM-REALITY-AKI\BUILD\BUILD\OBJ\MOONDREAM-REALITY-AKI\ARM64\RELEASE\VC142.PDB
^D:\UNITYPROJECTS\MOONDREAM-REALITY-AKI\BUILD\MOONDREAM-REALITY-AKI\UNITYGENERATED.CPP
D:\UNITYPROJECTS\MOONDREAM-REALITY-AKI\BUILD\BUILD\OBJ\MOONDREAM-REALITY-AKI\ARM64\RELEASE\VC142.PDB
